{
	"Version": 3,
	"Meta": {
		"Duration": 4.93,
		"Fps": 30.0,
		"Loop": true,
		"AreBeziersRestricted": true,
		"CurveCount": 23,
		"TotalSegmentCount": 139,
		"TotalPointCount": 394,
		"UserDataCount": 0,
		"TotalUserDataSize": 0
	},
	"Curves": [
		{
			"Target": "Model",
			"Id": "Opacity",
			"Segments": [
				0,
				1,
				1,
				1.63,
				1,
				3.27,
				1,
				4.9,
				1,
				0,
				4.93,
				1
			]
		},
		{
			"Target": "Parameter",
			"Id": "ParamAngleX",
			"Segments": [
				0,
				0,
				1,
				0.1,
				0,
				0.2,
				0,
				0.3,
				0,
				1,
				0.411,
				0,
				0.522,
				-18,
				0.633,
				-18,
				1,
				0.744,
				-18,
				0.856,
				19,
				0.967,
				19,
				1,
				1.078,
				19,
				1.189,
				-11,
				1.3,
				-11,
				1,
				1.411,
				-11,
				1.522,
				5,
				1.633,
				5,
				1,
				1.722,
				5,
				1.811,
				0,
				1.9,
				0,
				1,
				2.089,
				0,
				2.278,
				0,
				2.467,
				0,
				1,
				2.956,
				0,
				3.444,
				0,
				3.933,
				0,
				0,
				4.933,
				0
			]
		},
		{
			"Target": "Parameter",
			"Id": "ParamAngleY",
			"Segments": [
				0,
				0,
				1,
				0.1,
				0,
				0.2,
				0,
				0.3,
				0,
				1,
				0.411,
				0,
				0.522,
				0,
				0.633,
				0,
				1,
				1.244,
				0,
				1.856,
				0,
				2.467,
				0,
				1,
				2.567,
				0,
				2.667,
				4,
				2.767,
				4,
				1,
				2.9,
				4,
				3.033,
				-13,
				3.167,
				-13,
				1,
				3.422,
				-13,
				3.678,
				0,
				3.933,
				0,
				0,
				4.933,
				0
			]
		},
		{
			"Target": "Parameter",
			"Id": "ParamAngleZ",
			"Segments": [
				0,
				-11,
				1,
				0.1,
				-11,
				0.2,
				-11,
				0.3,
				-11,
				1,
				0.411,
				-11,
				0.522,
				-11,
				0.633,
				-11,
				1,
				1.244,
				-11,
				1.856,
				-11,
				2.467,
				-11,
				1,
				2.956,
				-11,
				3.444,
				-6.965,
				3.933,
				-2,
				1,
				4.122,
				-0.082,
				4.311,
				0,
				4.5,
				0,
				0,
				4.933,
				0
			]
		},
		{
			"Target": "Parameter",
			"Id": "ParamEyeLOpen",
			"Segments": [
				0,
				2,
				1,
				0.1,
				2,
				0.2,
				2,
				0.3,
				2,
				1,
				0.411,
				2,
				0.522,
				1,
				0.633,
				1,
				1,
				1.233,
				1,
				1.833,
				1,
				2.433,
				1,
				1,
				2.678,
				1,
				2.922,
				0,
				3.167,
				0,
				1,
				3.422,
				0,
				3.678,
				1,
				3.933,
				1,
				0,
				4.933,
				1
			]
		},
		{
			"Target": "Parameter",
			"Id": "ParamEyeROpen",
			"Segments": [
				0,
				2,
				1,
				0.1,
				2,
				0.2,
				2,
				0.3,
				2,
				1,
				0.411,
				2,
				0.522,
				1,
				0.633,
				1,
				1,
				1.244,
				1,
				1.856,
				1,
				2.467,
				1,
				1,
				2.7,
				1,
				2.933,
				0,
				3.167,
				0,
				1,
				3.422,
				0,
				3.678,
				1,
				3.933,
				1,
				0,
				4.933,
				1
			]
		},
		{
			"Target": "Parameter",
			"Id": "ParamEyeBallX",
			"Segments": [
				0,
				0,
				1,
				0.1,
				0,
				0.2,
				0,
				0.3,
				0,
				1,
				0.411,
				0,
				0.522,
				0.6,
				0.633,
				0.6,
				1,
				0.744,
				0.6,
				0.856,
				-0.5,
				0.967,
				-0.5,
				1,
				1.078,
				-0.5,
				1.189,
				0.3,
				1.3,
				0.3,
				1,
				1.411,
				0.3,
				1.522,
				-0.2,
				1.633,
				-0.2,
				1,
				1.722,
				-0.2,
				1.811,
				0.1,
				1.9,
				0.1,
				1,
				2.089,
				0.1,
				2.278,
				0.1,
				2.467,
				0.1,
				1,
				2.956,
				0.1,
				3.444,
				0,
				3.933,
				0,
				0,
				4.933,
				0
			]
		},
		{
			"Target": "Parameter",
			"Id": "ParamEyeBallY",
			"Segments": [
				0,
				0,
				1,
				0.1,
				0,
				0.2,
				0,
				0.3,
				0,
				1,
				0.411,
				0,
				0.522,
				0.293,
				0.633,
				0.4,
				1,
				0.744,
				0.507,
				0.856,
				0.5,
				0.967,
				0.5,
				1,
				1.078,
				0.5,
				1.189,
				0.5,
				1.3,
				0.5,
				1,
				1.411,
				0.5,
				1.522,
				0.473,
				1.633,
				0.4,
				1,
				1.722,
				0.341,
				1.811,
				0.3,
				1.9,
				0.3,
				1,
				2.089,
				0.3,
				2.278,
				0.3,
				2.467,
				0.3,
				1,
				2.956,
				0.3,
				3.444,
				0,
				3.933,
				0,
				0,
				4.933,
				0
			]
		},
		{
			"Target": "Parameter",
			"Id": "ParamBrowLY",
			"Segments": [
				0,
				0.9,
				1,
				0.1,
				0.9,
				0.2,
				0.9,
				0.3,
				0.9,
				1,
				0.411,
				0.9,
				0.522,
				-0.3,
				0.633,
				-0.3,
				1,
				1.244,
				-0.3,
				1.856,
				-0.3,
				2.467,
				-0.3,
				1,
				2.7,
				-0.3,
				2.933,
				0.3,
				3.167,
				0.3,
				1,
				3.422,
				0.3,
				3.678,
				0,
				3.933,
				0,
				0,
				4.933,
				0
			]
		},
		{
			"Target": "Parameter",
			"Id": "ParamBrowRY",
			"Segments": [
				0,
				0.9,
				1,
				0.1,
				0.9,
				0.2,
				0.9,
				0.3,
				0.9,
				1,
				0.411,
				0.9,
				0.522,
				-0.3,
				0.633,
				-0.3,
				1,
				1.244,
				-0.3,
				1.856,
				-0.3,
				2.467,
				-0.3,
				1,
				2.7,
				-0.3,
				2.933,
				0.3,
				3.167,
				0.3,
				1,
				3.422,
				0.3,
				3.678,
				0,
				3.933,
				0,
				0,
				4.933,
				0
			]
		},
		{
			"Target": "Parameter",
			"Id": "ParamBrowLX",
			"Segments": [
				0,
				0.8,
				1,
				0.1,
				0.8,
				0.2,
				0.8,
				0.3,
				0.8,
				1,
				0.411,
				0.8,
				0.522,
				-0.3,
				0.633,
				-0.3,
				1,
				1.244,
				-0.3,
				1.856,
				-0.3,
				2.467,
				-0.3,
				1,
				2.7,
				-0.3,
				2.933,
				0.3,
				3.167,
				0.3,
				1,
				3.422,
				0.3,
				3.678,
				0,
				3.933,
				0,
				0,
				4.933,
				0
			]
		},
		{
			"Target": "Parameter",
			"Id": "ParamBrowRX",
			"Segments": [
				0,
				0.8,
				1,
				0.1,
				0.8,
				0.2,
				0.8,
				0.3,
				0.8,
				1,
				0.411,
				0.8,
				0.522,
				-0.3,
				0.633,
				-0.3,
				1,
				1.244,
				-0.3,
				1.856,
				-0.3,
				2.467,
				-0.3,
				1,
				2.7,
				-0.3,
				2.933,
				0.3,
				3.167,
				0.3,
				1,
				3.422,
				0.3,
				3.678,
				0,
				3.933,
				0,
				0,
				4.933,
				0
			]
		},
		{
			"Target": "Parameter",
			"Id": "ParamBrowLForm",
			"Segments": [
				0,
				0.6,
				1,
				0.1,
				0.6,
				0.2,
				0.6,
				0.3,
				0.6,
				1,
				0.411,
				0.6,
				0.522,
				-0.5,
				0.633,
				-0.5,
				1,
				1.244,
				-0.5,
				1.856,
				-0.5,
				2.467,
				-0.5,
				1,
				2.7,
				-0.5,
				2.933,
				0.2,
				3.167,
				0.2,
				1,
				3.422,
				0.2,
				3.678,
				0,
				3.933,
				0,
				0,
				4.933,
				0
			]
		},
		{
			"Target": "Parameter",
			"Id": "ParamBrowRForm",
			"Segments": [
				0,
				0.6,
				1,
				0.1,
				0.6,
				0.2,
				0.6,
				0.3,
				0.6,
				1,
				0.411,
				0.6,
				0.522,
				-0.5,
				0.633,
				-0.5,
				1,
				1.244,
				-0.5,
				1.856,
				-0.5,
				2.467,
				-0.5,
				1,
				2.7,
				-0.5,
				2.933,
				0.2,
				3.167,
				0.2,
				1,
				3.422,
				0.2,
				3.678,
				0,
				3.933,
				0,
				0,
				4.933,
				0
			]
		},
		{
			"Target": "Parameter",
			"Id": "ParamMouthForm",
			"Segments": [
				0,
				-0.5,
				1,
				0.1,
				-0.5,
				0.2,
				-0.5,
				0.3,
				-0.5,
				1,
				0.411,
				-0.5,
				0.522,
				-0.6,
				0.633,
				-0.6,
				1,
				1.244,
				-0.6,
				1.856,
				-0.6,
				2.467,
				-0.6,
				1,
				2.7,
				-0.6,
				2.933,
				1,
				3.167,
				1,
				1,
				3.422,
				1,
				3.678,
				1,
				3.933,
				1,
				0,
				4.933,
				1
			]
		},
		{
			"Target": "Parameter",
			"Id": "ParamBodyAngleX",
			"Segments": [
				0,
				-1,
				1,
				0.1,
				-1,
				0.2,
				-1,
				0.3,
				-1,
				1,
				0.411,
				-1,
				0.522,
				-1,
				0.633,
				-1,
				1,
				1.244,
				-1,
				1.856,
				-1,
				2.467,
				-1,
				1,
				2.956,
				-1,
				3.444,
				0,
				3.933,
				0,
				0,
				4.933,
				0
			]
		},
		{
			"Target": "Parameter",
			"Id": "ParamBodyAngleY",
			"Segments": [
				0,
				5,
				1,
				0.1,
				5,
				0.2,
				5.234,
				0.3,
				3.279,
				1,
				0.411,
				1.107,
				0.522,
				-10,
				0.633,
				-10,
				1,
				1.244,
				-10,
				1.856,
				-10,
				2.467,
				-10,
				1,
				2.7,
				-10,
				2.933,
				8,
				3.167,
				8,
				1,
				3.422,
				8,
				3.678,
				0,
				3.933,
				0,
				0,
				4.933,
				0
			]
		},
		{
			"Target": "Parameter",
			"Id": "ParamBodyAngleZ",
			"Segments": [
				0,
				3,
				1,
				0.1,
				3,
				0.2,
				3,
				0.3,
				3,
				1,
				0.411,
				3,
				0.522,
				3,
				0.633,
				3,
				1,
				1.244,
				3,
				1.856,
				3,
				2.467,
				3,
				1,
				2.956,
				3,
				3.444,
				0,
				3.933,
				0,
				0,
				4.933,
				0
			]
		},
		{
			"Target": "Parameter",
			"Id": "ParamArmLA",
			"Segments": [
				0,
				0.7,
				1,
				0.1,
				0.7,
				0.2,
				1,
				0.3,
				1,
				1,
				0.411,
				1,
				0.522,
				1,
				0.633,
				1,
				1,
				1.244,
				1,
				1.856,
				0,
				2.467,
				0,
				1,
				2.611,
				0,
				2.756,
				0.331,
				2.9,
				0.5,
				1,
				3.244,
				0.902,
				3.589,
				1,
				3.933,
				1,
				0,
				4.933,
				1
			]
		},
		{
			"Target": "Parameter",
			"Id": "ParamArmRA",
			"Segments": [
				0,
				0.7,
				1,
				0.1,
				0.7,
				0.2,
				1,
				0.3,
				1,
				1,
				0.411,
				1,
				0.522,
				1,
				0.633,
				1,
				1,
				1.244,
				1,
				1.856,
				0,
				2.467,
				0,
				1,
				2.611,
				0,
				2.756,
				0.331,
				2.9,
				0.5,
				1,
				3.244,
				0.902,
				3.589,
				1,
				3.933,
				1,
				0,
				4.933,
				1
			]
		},
		{
			"Target": "Parameter",
			"Id": "ParamBreath",
			"Segments": [
				0,
				0,
				1,
				0.1,
				0,
				0.2,
				0,
				0.3,
				0,
				1,
				0.411,
				0,
				0.522,
				0,
				0.633,
				0,
				1,
				1.244,
				0,
				1.856,
				0,
				2.467,
				0,
				1,
				2.956,
				0,
				3.444,
				0,
				3.933,
				0,
				0,
				4.933,
				0
			]
		},
		{
			"Target": "Parameter",
			"Id": "ParamHairFront",
			"Segments": [
				0,
				0,
				1,
				0.1,
				0,
				0.2,
				0,
				0.3,
				0,
				1,
				0.411,
				0,
				0.522,
				0,
				0.633,
				0,
				1,
				1.244,
				0,
				1.856,
				0,
				2.467,
				0,
				1,
				2.956,
				0,
				3.444,
				0,
				3.933,
				0,
				0,
				4.933,
				0
			]
		},
		{
			"Target": "Parameter",
			"Id": "ParamHairBack",
			"Segments": [
				0,
				0,
				1,
				0.1,
				0,
				0.2,
				0,
				0.3,
				0,
				1,
				0.411,
				0,
				0.522,
				0,
				0.633,
				0,
				1,
				1.244,
				0,
				1.856,
				0,
				2.467,
				0,
				1,
				2.956,
				0,
				3.444,
				0,
				3.933,
				0,
				0,
				4.933,
				0
			]
		}
	]
}